{
    "current_page": 1,
    "data": [
        {
            "id": 2644,
            "first_name": "Majak",
            "last_name": "Daw",
            "is_featured": 1,
            "name": "Majak Daw",
            "slug": "majak-daw",
            "photos_count": 0,
            "profile_image_present": true,
            "based_in": {
                "id": 8,
                "name": "Victoria",
                "shortname": "VIC",
                "parent_location_id": 2
            },
            "profile_image_url": "https:\/\/d16im3wbsocaau.cloudfront.net\/uploads\/profiles\/C14Y532kk9ysmean9HTfwcujeCnhYkUKJMR6ZrfZ.jpeg",
            "sport_club": "AFL, Australian Rules Football",
            "package_ids": [
                1
            ],
            "profile": {
                "id": 1491,
                "tagline": "AFL Player",
                "highest_followers": 78100,
                "highest_followers_icon": "fa-instagram"
            }
        },
        {
            "id": 6251,
            "first_name": "Chaz",
            "last_name": "Mostert",
            "is_featured": 1,
            "name": "Chaz Mostert",
            "slug": "chaz-mostert",
            "photos_count": 0,
            "profile_image_present": true,
            "based_in": {
                "id": 6,
                "name": "Queensland",
                "shortname": "QLD",
                "parent_location_id": 2
            },
            "profile_image_url": "https:\/\/d16im3wbsocaau.cloudfront.net\/uploads\/profiles\/8PuenBcBAuFp3YDcHlzN8dfQPyBFr3MZziBHdOus.jpeg",
            "sport_club": "Motor Sports, Supercars",
            "package_ids": [],
            "profile": {
                "id": 2266,
                "tagline": "Supercars Driver",
                "highest_followers": 89000,
                "highest_followers_icon": "fa-instagram"
            }
        },
        {
            "id": 451,
            "first_name": "Scott",
            "last_name": "Pendlebury",
            "is_featured": 1,
            "name": "Scott Pendlebury",
            "slug": "scott-pendlebury",
            "photos_count": 0,
            "profile_image_present": true,
            "based_in": {
                "id": 8,
                "name": "Victoria",
                "shortname": "VIC",
                "parent_location_id": 2
            },
            "profile_image_url": "https:\/\/d16im3wbsocaau.cloudfront.net\/uploads\/profiles\/451P23wH5W5sCqTiEOvNmyXV78cOJNPXmzXSHL9W.png",
            "sport_club": "AFL, Australian Rules Football",
            "package_ids": [],
            "profile": {
                "id": 447,
                "tagline": "AFL - Collingwood FC Captain",
                "highest_followers": 129000,
                "highest_followers_icon": "fa-instagram"
            }
        },
        {
            "id": 585,
            "first_name": "Sam",
            "last_name": "Thaiday",
            "is_featured": 1,
            "name": "Sam Thaiday",
            "slug": "sam-thaiday",
            "photos_count": 1,
            "profile_image_present": true,
            "based_in": {
                "id": 6,
                "name": "Queensland",
                "shortname": "QLD",
                "parent_location_id": 2
            },
            "profile_image_url": "https:\/\/d16im3wbsocaau.cloudfront.net\/uploads\/profiles\/lInOBke5WNPMQUCrXt9dwrNGHbQEyaaDuSXIHZeW.jpeg",
            "sport_club": "NRL, Rugby league",
            "package_ids": [],
            "profile": {
                "id": 581,
                "tagline": "Rugby League",
                "highest_followers": 192000,
                "highest_followers_icon": "fa-instagram"
            }
        },
        {
            "id": 630,
            "first_name": "Mark",
            "last_name": "Williams",
            "is_featured": 1,
            "name": "Mark Williams",
            "slug": "mark-williams",
            "photos_count": 0,
            "profile_image_present": true,
            "based_in": {
                "id": 8,
                "name": "Victoria",
                "shortname": "VIC",
                "parent_location_id": 2
            },
            "profile_image_url": "https:\/\/d16im3wbsocaau.cloudfront.net\/uploads\/profiles\/h7i0GKXCdM5fX9mb242vf0NHERBLig7RhDeRC8EQ.jpeg",
            "sport_club": "AFL, Australian Rules Football",
            "package_ids": [
                2
            ],
            "profile": {
                "id": 626,
                "tagline": "AFL Premiership Coach \/ MENTOR",
                "highest_followers": 0,
                "highest_followers_icon": "fa-facebook"
            }
        },
        {
            "id": 2093,
            "first_name": "Corey",
            "last_name": "'Homicide' Williams",
            "is_featured": 0,
            "name": "Corey 'Homicide' Williams",
            "slug": "corey-homicide-williams",
            "photos_count": 1,
            "profile_image_present": true,
            "based_in": null,
            "profile_image_url": "https:\/\/d16im3wbsocaau.cloudfront.net\/uploads\/profiles\/NgJA1Bm07IBT25ybVISA6zycObS6u99bF1h5U22R.jpeg",
            "sport_club": "NBL, Basketball",
            "package_ids": [
                1,
                2
            ],
            "profile": {
                "id": 1270,
                "tagline": "Basketball Personality!",
                "highest_followers": 46000,
                "highest_followers_icon": "fa-instagram"
            }
        },
        {
            "id": 2516,
            "first_name": "Brad",
            "last_name": "Abbey",
            "is_featured": 0,
            "name": "Brad Abbey",
            "slug": "brad-abbey",
            "photos_count": 0,
            "profile_image_present": true,
            "based_in": {
                "id": 3,
                "name": "Australian Capital Territory",
                "shortname": "ACT",
                "parent_location_id": 2
            },
            "profile_image_url": "https:\/\/d16im3wbsocaau.cloudfront.net\/uploads\/profiles\/m3UI2RXkmXjfwFkT8w6OKew7RftCMu9YqR1iFrpS.png",
            "sport_club": "NRL, Rugby league",
            "package_ids": [],
            "profile": {
                "id": 1408,
                "tagline": "NRL Player",
                "highest_followers": 2929,
                "highest_followers_icon": "fa-instagram"
            }
        },
        {
            "id": 5,
            "first_name": "Grace",
            "last_name": "Abbey",
            "is_featured": 0,
            "name": "Grace Abbey",
            "slug": "grace-abbey",
            "photos_count": 0,
            "profile_image_present": true,
            "based_in": {
                "id": 7,
                "name": "South Australia",
                "shortname": "SA",
                "parent_location_id": 2
            },
            "profile_image_url": "https:\/\/d16im3wbsocaau.cloudfront.net\/uploads\/profiles\/47tHgvMM7G8eQBdkvrcjLAN8YxZ95YhN8RZzb1ck.jpeg",
            "sport_club": "W-League, Soccer",
            "package_ids": [],
            "profile": {
                "id": 1,
                "tagline": "Adelaide United Soccer Player",
                "highest_followers": 1237,
                "highest_followers_icon": "fa-instagram"
            }
        },
        {
            "id": 980,
            "first_name": "Ryan",
            "last_name": "Abbott",
            "is_featured": 0,
            "name": "Ryan Abbott",
            "slug": "ryan-abbott",
            "photos_count": 0,
            "profile_image_present": true,
            "based_in": {
                "id": 8,
                "name": "Victoria",
                "shortname": "VIC",
                "parent_location_id": 2
            },
            "profile_image_url": "https:\/\/d16im3wbsocaau.cloudfront.net\/uploads\/profiles\/oQTX4IsraOduBsuPZZYlrJsTZ1AARJtVRTWFWTC4.jpeg",
            "sport_club": "AFL, Australian Rules Football",
            "package_ids": [],
            "profile": {
                "id": 847,
                "tagline": "AFL Football Player",
                "highest_followers": null,
                "highest_followers_icon": "fa-facebook"
            }
        },
        {
            "id": 6080,
            "first_name": "Test",
            "last_name": "Account",
            "is_featured": 0,
            "name": "Test Account",
            "slug": "test-account",
            "photos_count": 1,
            "profile_image_present": true,
            "based_in": {
                "id": 7,
                "name": "South Australia",
                "shortname": "SA",
                "parent_location_id": 2
            },
            "profile_image_url": "https:\/\/d16im3wbsocaau.cloudfront.net\/uploads\/profiles\/eBKJ0v6vqWP81xogjuyPxpQPeFNifjsp8GqKRalU.jpeg",
            "sport_club": "4man Bobsled, Entrepreneur",
            "package_ids": [
                1,
                2
            ],
            "profile": {
                "id": 2195,
                "tagline": null,
                "highest_followers": null,
                "highest_followers_icon": "fa-facebook"
            }
        },
        {
            "id": 3242,
            "first_name": "Matthew",
            "last_name": "Acton",
            "is_featured": 0,
            "name": "Matthew Acton",
            "slug": "matthew-acton",
            "photos_count": 0,
            "profile_image_present": true,
            "based_in": {
                "id": 8,
                "name": "Victoria",
                "shortname": "VIC",
                "parent_location_id": 2
            },
            "profile_image_url": "https:\/\/d16im3wbsocaau.cloudfront.net\/uploads\/profiles\/rVd9M1fPfPVI7Q6hctB7XyFukUAk36dRamJlLFm2.jpeg",
            "sport_club": "A-League, Soccer",
            "package_ids": [],
            "profile": {
                "id": 1678,
                "tagline": "Goalkeeper for MVFC",
                "highest_followers": 3818,
                "highest_followers_icon": "fa-instagram"
            }
        },
        {
            "id": 4933,
            "first_name": "Daryl",
            "last_name": "Adair",
            "is_featured": 0,
            "name": "Daryl Adair",
            "slug": "daryl-adair",
            "photos_count": 3,
            "profile_image_present": true,
            "based_in": null,
            "profile_image_url": "https:\/\/d16im3wbsocaau.cloudfront.net\/uploads\/profiles\/fJTL4XPQLmDYuonyZvaYKbctxILfP9Y1DwRw9vyo.jpeg",
            "sport_club": "Tennis, Cricket",
            "package_ids": [],
            "profile": {
                "id": 2020,
                "tagline": "Sports Management Professor",
                "highest_followers": 3327,
                "highest_followers_icon": "fa-twitter"
            }
        },
        {
            "id": 7,
            "first_name": "Monique",
            "last_name": "Adamczak",
            "is_featured": 0,
            "name": "Monique Adamczak",
            "slug": "monique-adamczak",
            "photos_count": 0,
            "profile_image_present": true,
            "based_in": {
                "id": 4,
                "name": "New South Wales",
                "shortname": "NSW",
                "parent_location_id": 2
            },
            "profile_image_url": "https:\/\/d16im3wbsocaau.cloudfront.net\/uploads\/profiles\/YkNbUsglmQE64S13fbdF9zM6EN6uYRaNp8muXH6H.jpeg",
            "sport_club": "Sports Science, Tennis",
            "package_ids": [],
            "profile": {
                "id": 3,
                "tagline": "Tennis Player",
                "highest_followers": 1748,
                "highest_followers_icon": "fa-twitter"
            }
        },
        {
            "id": 8,
            "first_name": "Taylor",
            "last_name": "Adams",
            "is_featured": 0,
            "name": "Taylor Adams",
            "slug": "taylor-adams",
            "photos_count": 1,
            "profile_image_present": true,
            "based_in": {
                "id": 8,
                "name": "Victoria",
                "shortname": "VIC",
                "parent_location_id": 2
            },
            "profile_image_url": "https:\/\/d16im3wbsocaau.cloudfront.net\/uploads\/profiles\/wrP15WszHsbVqKTefmaN2w8xzTcFTgVE7lCeYIWj.png",
            "sport_club": "AFL, Australian Rules Football",
            "package_ids": [
                1
            ],
            "profile": {
                "id": 4,
                "tagline": "AFL Football Player",
                "highest_followers": 39000,
                "highest_followers_icon": "fa-instagram"
            }
        },
        {
            "id": 9,
            "first_name": "Jed",
            "last_name": "Adcock",
            "is_featured": 0,
            "name": "Jed Adcock",
            "slug": "jed-adcock",
            "photos_count": 0,
            "profile_image_present": true,
            "based_in": {
                "id": 6,
                "name": "Queensland",
                "shortname": "QLD",
                "parent_location_id": 2
            },
            "profile_image_url": "https:\/\/d16im3wbsocaau.cloudfront.net\/uploads\/profiles\/V6VIRWbgY8ydngkuDJfF2P2jHBk6epQm7WCSYFcf.jpeg",
            "sport_club": "AFL, Coach",
            "package_ids": [],
            "profile": {
                "id": 5,
                "tagline": "AFL Football Player | Coach",
                "highest_followers": 7516,
                "highest_followers_icon": "fa-instagram"
            }
        },
        {
            "id": 646,
            "first_name": "Jake",
            "last_name": "Adelson",
            "is_featured": 0,
            "name": "Jake Adelson",
            "slug": "jake-adelson",
            "photos_count": 0,
            "profile_image_present": true,
            "based_in": {
                "id": 4,
                "name": "New South Wales",
                "shortname": "NSW",
                "parent_location_id": 2
            },
            "profile_image_url": "https:\/\/d16im3wbsocaau.cloudfront.net\/uploads\/profiles\/2LWrEvGie2P4BminaL4wlDvusSnuhhsFi8GYhVWf.jpeg",
            "sport_club": "Soccer, A-League",
            "package_ids": [],
            "profile": {
                "id": 642,
                "tagline": "Newcastle Jets Player",
                "highest_followers": 7396,
                "highest_followers_icon": "fa-instagram"
            }
        },
        {
            "id": 2078,
            "first_name": "Kyle",
            "last_name": "Adnam",
            "is_featured": 0,
            "name": "Kyle Adnam",
            "slug": "kyle-adnam",
            "photos_count": 0,
            "profile_image_present": true,
            "based_in": null,
            "profile_image_url": "https:\/\/d16im3wbsocaau.cloudfront.net\/uploads\/profiles\/Ij2VKMLfNnI2qrjKZvI4fJtww8U2mvpFRdww9p3l.jpeg",
            "sport_club": "NBL, Basketball",
            "package_ids": [],
            "profile": {
                "id": 1266,
                "tagline": "Basketballer",
                "highest_followers": 10000,
                "highest_followers_icon": "fa-instagram"
            }
        },
        {
            "id": 1437,
            "first_name": "Paul",
            "last_name": "Ahern",
            "is_featured": 0,
            "name": "Paul Ahern",
            "slug": "paul-ahern",
            "photos_count": 0,
            "profile_image_present": true,
            "based_in": {
                "id": 8,
                "name": "Victoria",
                "shortname": "VIC",
                "parent_location_id": 2
            },
            "profile_image_url": "https:\/\/d16im3wbsocaau.cloudfront.net\/uploads\/profiles\/VW3uoaafgoofAXOgRW0jvAFnjmRySWIrEBkrQeqh.png",
            "sport_club": "AFL, Australian Rules Football",
            "package_ids": [],
            "profile": {
                "id": 1023,
                "tagline": "AFL Player",
                "highest_followers": 3321,
                "highest_followers_icon": "fa-instagram"
            }
        },
        {
            "id": 1614,
            "first_name": "Romelda",
            "last_name": "Aiken",
            "is_featured": 0,
            "name": "Romelda Aiken",
            "slug": "romelda-aiken",
            "photos_count": 0,
            "profile_image_present": true,
            "based_in": {
                "id": 6,
                "name": "Queensland",
                "shortname": "QLD",
                "parent_location_id": 2
            },
            "profile_image_url": "https:\/\/d16im3wbsocaau.cloudfront.net\/uploads\/profiles\/MGUtRulOMV1TMb0Q6Im5ImkXJDcbmfgRdVoRgy6e.jpeg",
            "sport_club": "Netball, Queensland Firebirds",
            "package_ids": [],
            "profile": {
                "id": 1109,
                "tagline": "professional netball athlete",
                "highest_followers": 14100,
                "highest_followers_icon": "fa-instagram"
            }
        },
        {
            "id": 912,
            "first_name": "James",
            "last_name": "Aish",
            "is_featured": 0,
            "name": "James Aish",
            "slug": "james-aish",
            "photos_count": 0,
            "profile_image_present": true,
            "based_in": {
                "id": 9,
                "name": "Western Australia",
                "shortname": "WA",
                "parent_location_id": 2
            },
            "profile_image_url": "https:\/\/d16im3wbsocaau.cloudfront.net\/uploads\/profiles\/Z5HFUl2CDRWySglQ3Ex0cRXLEjz3qdJLCpjn6NQF.jpeg",
            "sport_club": "AFL, Australian Rules Football",
            "package_ids": [],
            "profile": {
                "id": 793,
                "tagline": "AFL Football Player",
                "highest_followers": 12800,
                "highest_followers_icon": "fa-instagram"
            }
        },
        {
            "id": 10,
            "first_name": "Jason",
            "last_name": "Akermanis",
            "is_featured": 0,
            "name": "Jason Akermanis",
            "slug": "jason-akermanis",
            "photos_count": 2,
            "profile_image_present": true,
            "based_in": {
                "id": 8,
                "name": "Victoria",
                "shortname": "VIC",
                "parent_location_id": 2
            },
            "profile_image_url": "https:\/\/d16im3wbsocaau.cloudfront.net\/uploads\/profiles\/NgjDLo8yiU8hQc2GECQGLL0aLKj8rinkcghyBnPu.jpeg",
            "sport_club": "AFL, Australian Rules Football",
            "package_ids": [
                1
            ],
            "profile": {
                "id": 6,
                "tagline": "AFL Player",
                "highest_followers": 81,
                "highest_followers_icon": "fa-instagram"
            }
        },
        {
            "id": 11,
            "first_name": "Dylan",
            "last_name": "Alcott",
            "is_featured": 0,
            "name": "Dylan Alcott",
            "slug": "dylan-alcott",
            "photos_count": 0,
            "profile_image_present": true,
            "based_in": {
                "id": 8,
                "name": "Victoria",
                "shortname": "VIC",
                "parent_location_id": 2
            },
            "profile_image_url": "https:\/\/d16im3wbsocaau.cloudfront.net\/uploads\/profiles\/qj2fFIFi8tD6jgGPHTim6joS2yi1LSe6NFaVLlSN.jpeg",
            "sport_club": "Paralympics, Tennis",
            "package_ids": [],
            "profile": {
                "id": 7,
                "tagline": "Wheelchair Tennis Player",
                "highest_followers": 118000,
                "highest_followers_icon": "fa-instagram"
            }
        },
        {
            "id": 647,
            "first_name": "Terry",
            "last_name": "Alderman",
            "is_featured": 0,
            "name": "Terry Alderman",
            "slug": "terry-alderman",
            "photos_count": 0,
            "profile_image_present": true,
            "based_in": {
                "id": 9,
                "name": "Western Australia",
                "shortname": "WA",
                "parent_location_id": 2
            },
            "profile_image_url": "https:\/\/d16im3wbsocaau.cloudfront.net\/uploads\/profiles\/4xUvCeb59CpzF7mscBzIKViD5Un5kFOtfMbvVGUJ.jpeg",
            "sport_club": "Australian Cricket Team, Cricket",
            "package_ids": [],
            "profile": {
                "id": 643,
                "tagline": "Retired Cricket\/Commentator",
                "highest_followers": 0,
                "highest_followers_icon": "fa-facebook"
            }
        },
        {
            "id": 771,
            "first_name": "Olympia",
            "last_name": "Aldersey",
            "is_featured": 0,
            "name": "Olympia Aldersey",
            "slug": "olympia-aldersey",
            "photos_count": 3,
            "profile_image_present": true,
            "based_in": {
                "id": 4,
                "name": "New South Wales",
                "shortname": "NSW",
                "parent_location_id": 2
            },
            "profile_image_url": "https:\/\/d16im3wbsocaau.cloudfront.net\/uploads\/profiles\/v34kMCuAupiUZ278h1HNCN6LFeyzqUyrCwhtqvSw.jpeg",
            "sport_club": "Olympics, Water Sports",
            "package_ids": [
                2
            ],
            "profile": {
                "id": 743,
                "tagline": "Australian Rowing Olympian",
                "highest_followers": null,
                "highest_followers_icon": "fa-facebook"
            }
        },
        {
            "id": 4702,
            "first_name": "Tansel",
            "last_name": "Ali",
            "is_featured": 0,
            "name": "Tansel Ali",
            "slug": "tansel-ali",
            "photos_count": 3,
            "profile_image_present": true,
            "based_in": {
                "id": 8,
                "name": "Victoria",
                "shortname": "VIC",
                "parent_location_id": 2
            },
            "profile_image_url": "https:\/\/d16im3wbsocaau.cloudfront.net\/uploads\/profiles\/lC7PWVMLBSifu3ymJjrjCAbLzx80LnhYcaHWhcpo.jpeg",
            "sport_club": "Athlete Development, Sports Science",
            "package_ids": [
                1
            ],
            "profile": {
                "id": 1967,
                "tagline": "4 x Australian Memory Champion",
                "highest_followers": 10581,
                "highest_followers_icon": "fa-facebook"
            }
        },
        {
            "id": 5107,
            "first_name": "Maddison",
            "last_name": "Allen",
            "is_featured": 0,
            "name": "Maddison Allen",
            "slug": "maddison-allen",
            "photos_count": 3,
            "profile_image_present": true,
            "based_in": {
                "id": 9,
                "name": "Western Australia",
                "shortname": "WA",
                "parent_location_id": 2
            },
            "profile_image_url": "https:\/\/d16im3wbsocaau.cloudfront.net\/uploads\/profiles\/ZlbKRJczVIbG5y37bGxwOisJY823Jn9qFUDWCISF.png",
            "sport_club": "Basketball, WNBL",
            "package_ids": [
                1
            ],
            "profile": {
                "id": 2054,
                "tagline": "Perth Lynx WNBL player",
                "highest_followers": null,
                "highest_followers_icon": "fa-facebook"
            }
        },
        {
            "id": 1399,
            "first_name": "Stephen",
            "last_name": "Allender",
            "is_featured": 0,
            "name": "Stephen Allender",
            "slug": "stephen-allender",
            "photos_count": 0,
            "profile_image_present": true,
            "based_in": {
                "id": 8,
                "name": "Victoria",
                "shortname": "VIC",
                "parent_location_id": 2
            },
            "profile_image_url": "https:\/\/d16im3wbsocaau.cloudfront.net\/uploads\/profiles\/z2czCiWp08QiZpbcYs3FpwsNzOaqJ4nMMEHk0lvJ.jpeg",
            "sport_club": "AFL, Australian Rules Football",
            "package_ids": [],
            "profile": {
                "id": 1004,
                "tagline": "Youngest JJ Liston medalist.",
                "highest_followers": null,
                "highest_followers_icon": "fa-facebook"
            }
        },
        {
            "id": 913,
            "first_name": "Joel",
            "last_name": "Amartey",
            "is_featured": 0,
            "name": "Joel Amartey",
            "slug": "joel-amartey",
            "photos_count": 0,
            "profile_image_present": true,
            "based_in": {
                "id": 4,
                "name": "New South Wales",
                "shortname": "NSW",
                "parent_location_id": 2
            },
            "profile_image_url": "https:\/\/d16im3wbsocaau.cloudfront.net\/uploads\/profiles\/O8U3AAcK3weO2jKvlZvYGUQ5lBRyvMWOYfW55XTW.png",
            "sport_club": "AFL, Australian Rules Football",
            "package_ids": [],
            "profile": {
                "id": 794,
                "tagline": "AFL Football Player",
                "highest_followers": 1472,
                "highest_followers_icon": "fa-instagram"
            }
        },
        {
            "id": 2494,
            "first_name": "Josh",
            "last_name": "Amberger",
            "is_featured": 0,
            "name": "Josh Amberger",
            "slug": "josh-amberger",
            "photos_count": 0,
            "profile_image_present": true,
            "based_in": {
                "id": 6,
                "name": "Queensland",
                "shortname": "QLD",
                "parent_location_id": 2
            },
            "profile_image_url": "https:\/\/d16im3wbsocaau.cloudfront.net\/uploads\/profiles\/o4zA719xAcnT9COBfLqffXHSS685N72CjPlT4bVP.jpeg",
            "sport_club": "Ironman, Triathlon",
            "package_ids": [],
            "profile": {
                "id": 1397,
                "tagline": "Professional Ironman",
                "highest_followers": 22000,
                "highest_followers_icon": "fa-instagram"
            }
        },
        {
            "id": 914,
            "first_name": "Karl",
            "last_name": "Amon",
            "is_featured": 0,
            "name": "Karl Amon",
            "slug": "karl-amon",
            "photos_count": 0,
            "profile_image_present": true,
            "based_in": {
                "id": 7,
                "name": "South Australia",
                "shortname": "SA",
                "parent_location_id": 2
            },
            "profile_image_url": "https:\/\/d16im3wbsocaau.cloudfront.net\/uploads\/profiles\/LnG5ozD2DcZBgljY4zKWweCbIvcLqUMu27ChgQwY.jpeg",
            "sport_club": "AFL, Australian Rules Football",
            "package_ids": [],
            "profile": {
                "id": 795,
                "tagline": "AFL Football Player",
                "highest_followers": 3184,
                "highest_followers_icon": "fa-twitter"
            }
        },
        {
            "id": 648,
            "first_name": "Braith",
            "last_name": "Anasta",
            "is_featured": 0,
            "name": "Braith Anasta",
            "slug": "braith-anasta",
            "photos_count": 0,
            "profile_image_present": true,
            "based_in": {
                "id": 4,
                "name": "New South Wales",
                "shortname": "NSW",
                "parent_location_id": 2
            },
            "profile_image_url": "https:\/\/d16im3wbsocaau.cloudfront.net\/uploads\/profiles\/gZfsWQszDomgRUDwERwjpyE2tK6wtRm8tZdKIWfI.jpeg",
            "sport_club": "NRL, Rugby league",
            "package_ids": [],
            "profile": {
                "id": 644,
                "tagline": "Retired NRL",
                "highest_followers": 36700,
                "highest_followers_icon": "fa-instagram"
            }
        },
        {
            "id": 2218,
            "first_name": "Ally",
            "last_name": "Anderson",
            "is_featured": 0,
            "name": "Ally Anderson",
            "slug": "ally-anderson",
            "photos_count": 0,
            "profile_image_present": true,
            "based_in": {
                "id": 6,
                "name": "Queensland",
                "shortname": "QLD",
                "parent_location_id": 2
            },
            "profile_image_url": "https:\/\/d16im3wbsocaau.cloudfront.net\/uploads\/profiles\/GZko4BE34wJfYyA08E6OFo05QkYbjYK8RIN4gqLF.jpeg",
            "sport_club": "AFLW, Australian Rules Football",
            "package_ids": [],
            "profile": {
                "id": 1312,
                "tagline": "Brisbane Lions AFLW Player",
                "highest_followers": 1913,
                "highest_followers_icon": "fa-instagram"
            }
        }
    ],
    "first_page_url": "https:\/\/pickstar.com.au\/api\/our-stars?page=1",
    "from": 1,
    "last_page": 51,
    "last_page_url": "https:\/\/pickstar.com.au\/api\/our-stars?page=51",
    "next_page_url": "https:\/\/pickstar.com.au\/api\/our-stars?page=2",
    "path": "https:\/\/pickstar.com.au\/api\/our-stars",
    "per_page": 32,
    "prev_page_url": null,
    "to": 32,
    "total": 1607
}